Assignment 05: Web scraping and APIs
…
 - changing the “date” column from char type into data type

 - getting rid of the “details” column because it’s not necessary for the analysis and also has a lot of text in it

prison_breaks <-
  page |> 
  html_element("#mw-content-text > div.mw-content-ltr.mw-parser-output > table:nth-child(14)") |> 
  html_table()|> 
  clean_names()|>         
  mutate(date = mdy(date)) |> 
  select(!details)

prison_breaks

# A tibble: 50 × 5
   date       prison_name                            country succeeded escapee_s
   <date>     <chr>                                  <chr>   <chr>     <chr>    
 1 1971-08-19 Santa Martha Acatitla                  Mexico  Yes       "Joel Da…
 2 1973-10-31 Mountjoy Jail, Dublin                  Ireland Yes       "JB O'Ha…
 3 1978-05-24 United States Penitentiary, Marion, I… United… No        "Garrett…
 4 1981-02-27 Fleury-Mérogis, Essonne, Ile de France France  Yes       "Gérard …
 5 1981-05-07 Orsainville Prison, Quebec City        Canada  No        "Marina …
 6 1983-01-19 Pentridge (HM Prison)                  Austra… No        "David M…
 7 1985-12-19 Perry Correctional Institution, Pelze… United… Yes       "James R…
 8 1985-12-31 Cândido Mendes penitentiary, Ilha Gra… Brazil  Yes       "José Ca…
 9 1986-05-26 Prison de la Santé                     France  Yes       "Michel …
10 1986-11-05 Federal Correctional Institution, Dub… United… Yes       "Samanth…
# ℹ 40 more rows
…
